…
The second tibble shows the posterior probability for each pattern per methylation site.

``` r
iprofun_result$`Gene Posterior Probability`
```

    ## # A tibble: 1,779 x 11
    ##    X     Gene_ID Hybridization    None `RNA only` `Protein only`
    ##    <chr> <chr>   <chr>           <dbl>      <dbl>          <dbl>
    ##  1 Meth… AAAS    cg00559473    8.36e-1   0.0254    0.00000356   
    ##  2 Meth… AAAS    cg23032316    9.69e-1   0.0157    0.000000729  
    ##  3 Meth… ABCC1   cg17199483    9.81e-1   0.0132    0.000000282  
    ##  4 Meth… ABI1    cg17918201    2.73e-4   0.0983    0.00000000187
    ##  5 Meth… ABI1    cg23087130    6.06e-1   0.00559   0.0000309    
    ##  6 Meth… ABI2    cg09845946    2.08e-1   0.119     0.000000905  
    ##  7 Meth… ABLIM1  cg05064181    9.98e-1   0.000806  0.000000292  
    ##  8 Meth… ACLY    cg24124398    7.96e-1   0.0260    0.00000386   
    ##  9 Meth… ACLY    cg25687894    9.86e-1   0.00437   0.00000154   
    ## 10 Meth… ACTL6A  cg03667091    8.51e-1   0.0481    0.00000137   
    ## # ... with 1,769 more rows, and 5 more variables: `Phosphosite
    ## #   only` <dbl>, `RNA & Protein` <dbl>, `RNA & Phospho` <dbl>, `Protein &
    ## #   Phospho` <dbl>, `All three` <dbl>

The third tibble shows the beta coefficients for each gene-level multiple linear regression.

``` r
iprofun_result$Beta
```

    ## # A tibble: 1,779 x 9
    ##    Gene_ID estimate_cnv_rna estimate_cnv_pr… estimate_cnv_ph… Hybridization
    ##    <chr>              <dbl>            <dbl>            <dbl> <chr>        
    ##  1 AAAS               2.15             2.01             0.765 <NA>         
    ##  2 ABCC1              1.31             1.21             0.492 <NA>         
    ##  3 ABI1               1.71             1.96            -0.295 <NA>         
    ##  4 ABI2               2.30             2.07             1.08  <NA>         
    ##  5 ABLIM1             1.18             1.46             1.60  <NA>         
    ##  6 ACLY               1.14             0.702            0.705 <NA>         
    ##  7 ACTL6A             1.61             1.57             0.742 <NA>         
    ##  8 ACTR2              1.32             1.36            -0.207 <NA>         
    ##  9 ADAM17             1.41             1.68            -0.784 <NA>         
    ## 10 ADD2               0.954            0.776           -0.767 <NA>         
    ## # ... with 1,769 more rows, and 4 more variables: X <chr>,
    ## #   estimate_methy_rna <dbl>, estimate_methy_protein <dbl>,
    ## #   estimate_methy_phospho <dbl>
…
The second tibble shows whether a gene is identified by iProFun or not with the FDR crteria we set.

``` r
iprofun_permutate_result$`iProFun Result`
```

    ## # A tibble: 676 x 7
    ##    Gene  `CNV RNA` `Methy RNA` `Methy Protein` `CNV Protein`
    ##    <chr>     <dbl>       <dbl>           <dbl>         <dbl>
    ##  1 AAAS          1           0               0             1
    ##  2 ABCC1         1           0               0             1
    ##  3 ABI2          1           0               0             1
    ##  4 ABLI…         1           0               0             1
    ##  5 ACLY          1           0               0             1
    ##  6 ACTL…         1           0               0             1
    ##  7 ADD3          1           0               0             1
    ##  8 ADNP          1           0               0             1
    ##  9 AHNAK         1           0               0             1
    ## 10 AKAP1         1           0               0             1
    ## # ... with 666 more rows, and 2 more variables: `Methy Phospho` <dbl>,
    ## #   `CNV Phospho` <dbl>

The third tibble shows add the direction of the assocation to the second tibble.

``` r
iprofun_permutate_result$`iProFun Result (Negative/Positive)`
```

    ## # A tibble: 676 x 7
    ##    Gene  `CNV RNA` `Methy RNA` `Methy Protein` `CNV Protein`
    ##    <chr>     <dbl>       <dbl>           <dbl>         <dbl>
    ##  1 AAAS          1           0               0             1
    ##  2 ABCC1         1           0               0             1
    ##  3 ABI2          1           0               0             1
    ##  4 ABLI…         1           0               0             1
    ##  5 ACLY          1           0               0             1
    ##  6 ACTL…         1           0               0             1
    ##  7 ADD3          1           0               0             1
    ##  8 ADNP          1           0               0             1
    ##  9 AHNAK         1           0               0             1
    ## 10 AKAP1         1           0               0             1
    ## # ... with 666 more rows, and 2 more variables: `Methy Phospho` <dbl>,
    ## #   `CNV Phospho` <dbl>
…
